PickTicketNumber,Warehouse,OrderDate,StartDate,CancelDate,ShipDate,PaymentTerms,CertifiedFunds,Department,Store,ShipVia,ShipViaAccountNumber,ShipViaService,BillingOption,DeclaredValuePercentage,SpecialInstructions,CustomerPONumber,AuthorizationNumber,OrderNumber,TakenBy,BilltoCode,BillToFirstName,BillToLastName,BillToCompanyName,BillToAddress1,BillToAddress2,BillToCity,BillToState,BillToZip,BillToCountry,BillToNon_US_Region,BillToPhone,BilltoEmail,ShiptoCode,ShipToFirstName,ShipToLastName,ShipToCompanyName,ShipToAddress1,ShipToAddress2,ShipToCity,ShipToState,ShipToZip,ShipToCountry,ShipToNon_US_Region,ShiptoPhone,ShiptoEmail,lineItemsTotalAmount,LineItemsTotalQuantity,LineItemSeason,LineItemStyle,LineItemDescription,LineItemColor,LineItemSize,LineItemUPC,LineItemUnitPrice,LineItemQuantity,Dccode
256,,14/12/2011,,,,,,,,UPS,,,Prepaid,,,256,,256,,1,michele,tanner,,9 fairview avenue,,secaucus,NJ,07094,USA,,2013041036,lifeisshortnjoy@aol.com,28,michele,tanner,,9 fairview avenue,,secaucus,NJ,07094,USA,,2013041036,lifeisshortnjoy@aol.com,0.00,4,,,,,,sloan-aquarius,100,1,
257,,14/12/2011,,,,,,,,UPS,,,Prepaid,,,257,,257,,1,michele,tanner,,9 fairview avenue,,secaucus,NJ,07094,USA,,2013041036,lifeisshortnjoy@aol.com,28,michele,tanner,,9 fairview avenue,,secaucus,NJ,07094,USA,,2013041036,lifeisshortnjoy@aol.com,0.00,4,,,,,,sloan-aries,100,1,
258,,14/12/2011,,,,,,,,UPS,,,Prepaid,,,258,,258,,1,michele,tanner,,9 fairview avenue,,secaucus,NJ,07094,USA,,2013041036,lifeisshortnjoy@aol.com,28,michele,tanner,,9 fairview avenue,,secaucus,NJ,07094,USA,,2013041036,lifeisshortnjoy@aol.com,0.00,4,,,,,,sloan-taurus,100,1,
259,,14/12/2011,,,,,,,,UPS,,,Prepaid,,,259,,259,,1,benita ,veal,,1321 W Farms Rd ,Apt 6D,New york ,NY,10459,USA,,7182493616,benitaveal@gmail.com,28,benita ,veal,,112 W 34th st ,floor 22,New york ,NY,10120,USA,,7182493616,benitaveal@gmail.com,0.00,4,,,,,,jessie-aries,100,1,
261,,14/12/2011,,,,,,,,UPS,,,Prepaid,,,261,,261,,1,Maria,Gonzalez,,200 East 28th Street Apt 5E,,Brooklyn,NY,11226,USA,,347-213-2013,heartlyurs2@aol.com,28,Maria,Gonzalez,,200 East 18th Street,,Brooklyn,NY,11226,USA,,347-213-2019,heartlyurs2@aol.com,0.00,4,,,,,,sloan-leo,100,1,
262,,15/12/2011,,,,,,,,UPS,,,Prepaid,,,262,,262,,1,Dolores,Somers,,149-21 22 avenue,,Whitestone,NY,11357,USA,,9177043122,deeonechef@aol.com,28,Dolores,Somers,,149-21 22 avenue,,Whitestone,NY,11357,USA,,9177043122,deeonechef@aol.com,0.00,4,,,,,,sloan-libra,100,1,
