PickTicketNumber,Warehouse,OrderDate,StartDate,CancelDate,ShipDate,PaymentTerms,CertifiedFunds,Department,Store,ShipVia,ShipViaAccountNumber,ShipViaService,BillingOption,DeclaredValuePercentage,SpecialInstructions,CustomerPONumber,AuthorizationNumber,OrderNumber,TakenBy,BilltoCode,BillToFirstName,BillToLastName,BillToCompanyName,BillToAddress1,BillToAddress2,BillToCity,BillToState,BillToZip,BillToCountry,BillToNon_US_Region,BillToPhone,BilltoEmail,ShiptoCode,ShipToFirstName,ShipToLastName,ShipToCompanyName,ShipToAddress1,ShipToAddress2,ShipToCity,ShipToState,ShipToZip,ShipToCountry,ShipToNon_US_Region,ShiptoPhone,ShiptoEmail,lineItemsTotalAmount,LineItemsTotalQuantity,LineItemSeason,LineItemStyle,LineItemDescription,LineItemColor,LineItemSize,LineItemUPC,LineItemUnitPrice,LineItemQuantity,Dccode
279,,01/02/2012,,,,,,,,UPS,,,Prepaid,,,279,,279,,1,Fuentes,Jessica,,30 Fieldstone Drive,,Hartsdale,NY,10530,USA,,914-607-2020,fuentesjea@optonline.net,28,Fuentes,Jessica,,30 Fieldstone Drive,,Hartsdale,NY,10530,USA,,914-607-2020,fuentesjea@optonline.net,0.00,4,,,,,,jessie-capricorn,100,1,
280,,01/02/2012,,,,,,,,UPS,,,Prepaid,,,280,,280,,1,Fuentes,Jessica,,30 Fieldstone Drive #24A,,Hartsdale,NY,10530,USA,,914-607-2020,fuentesjea@optonline.net,28,Fuentes,Jessica,,30 Fieldstone Drive #24A,,Hartsdale,NY,10530,USA,,914-607-2020,fuentesjea@optonline.net,0.00,4,,,,,,sloan-taurus,100,1,
281,,01/02/2012,,,,,,,,UPS,,,Prepaid,,,281,,281,,1,Fuentes,Jessica,,30 Fieldstone Drive #24A,,Hartsdale,NY,10530,USA,,914-607-2020,fuentesjea@optonline.net,28,Fuentes,Jessica,,30 Fieldstone Drive #24A,,Hartsdale,NY,10530,USA,,914-607-2020,fuentesjea@optonline.net,0.00,4,,,,,,jessie-capricorn,100,1,
282,,01/02/2012,,,,,,,,UPS,,,Prepaid,,,282,,282,,1,Fuentes,Jessica,,30 Fieldstone Drive #24A,,Hartsdale,NY,10530,USA,,914-607-2020,fuentesjea@optonline.net,28,Fuentes,Jessica,,30 Fieldstone Drive #24A,,Hartsdale,NY,10530,USA,,914-607-2020,fuentesjea@optonline.net,0.00,4,,,,,,sloan-taurus,100,1,
